{"count":21,"next":"https://management.libertypayng.com/req/get-team_members/?page=2&role=ADMIN","previous":null,"results":[{"id":"63a12d49-4596-46eb-91ba-2bf193666118","req_no":6,"phone_no":"2348138096550","email":"adetutuisinks@gmail.com","user_email":"adetutuisinks@gmail.com","first_name":"Adeyyy","last_name":"Sandra","team_name":"Team Alpha","company_name":"Canva","branch_name":null,"user_phone_no":"2348138096550","role":"ADMIN","is_registered":true,"created_at":"2024-07-15T15:47:22.212876+01:00","status":"ACTIVE"},{"id":"78255ef0-3f10-486f-b368-c3450fea7f06","req_no":0,"phone_no":"2348138096550","email":"adetutuisinks@gmail.com","user_email":"adetutuisinks@gmail.com","first_name":"Adeyyy","last_name":"Sandra","team_name":"Team Beta","company_name":"Canva","branch_name":null,"user_phone_no":"2348138096550","role":"ADMIN","is_registered":true,"created_at":"2024-07-15T15:44:34.943131+01:00","status":"ACTIVE"},{"id":"3a73dc6c-71d4-48af-a5d5-b5d8009d7cd2","req_no":0,"phone_no":"2348138096550","email":"adetutuisinks@gmail.com","user_email":"adetutuisinks@gmail.com","first_name":"Adeyyy","last_name":"Sandra","team_name":"Test-Dev(Spend Management37)","company_name":"Canva","branch_name":null,"user_phone_no":"2348138096550","role":"ADMIN","is_registered":true,"created_at":"2024-07-15T15:38:58.657100+01:00","status":"ACTIVE"},{"id":"4de4c481-a6fd-4a9d-8820-4749b1bbc2b8","req_no":0,"phone_no":"2348138096550","email":"adetutuisinks@gmail.com","user_email":"adetutuisinks@gmail.com","first_name":"Adeyyy","last_name":"Sandra","team_name":"Axiom Team","company_name":"Axiom","branch_name":null,"user_phone_no":"2348138096550","role":"ADMIN","is_registered":true,"created_at":"2024-07-05T14:14:25.795637+01:00","status":"ACTIVE"},{"id":"d1fd210e-a913-477a-b8c2-60712b179ee0","req_no":0,"phone_no":"2348138096550","email":"adetutuisinks@gmail.com","user_email":"adetutuisinks@gmail.com","first_name":"Adeyyy","last_name":"Sandra","team_name":"Team White","company_name":"Test Abc","branch_name":"TEST A","user_phone_no":"2348138096550","role":"ADMIN","is_registered":true,"created_at":"2024-06-29T17:45:48.547768+01:00","status":"ACTIVE"},{"id":"136934e6-b586-40f3-b751-6036f9c1b2a3","req_no":0,"phone_no":"2348138096550","email":"adetutuisinks@gmail.com","user_email":"adetutuisinks@gmail.com","first_name":"Adeyyy","last_name":"Sandra","team_name":"Go Team","company_name":"Ancient","branch_name":null,"user_phone_no":"2348138096550","role":"ADMIN","is_registered":true,"created_at":"2024-06-29T08:17:59.583566+01:00","status":"ACTIVE"},{"id":"d92ca6ac-d049-4225-8a75-bf4ca98f9806","req_no":0,"phone_no":"2348138096550","email":"adetutuisinks@gmail.com","user_email":"adetutuisinks@gmail.com","first_name":"Adeyyy","last_name":"Sandra","team_name":"Solutions","company_name":"Axiom","branch_name":null,"user_phone_no":"2348138096550","role":"ADMIN","is_registered":true,"created_at":"2024-06-29T07:05:41.886073+01:00","status":"ACTIVE"},{"id":"1785cec9-eb07-4285-bb5d-cb2c9c2b405f","req_no":0,"phone_no":null,"email":"idorenyinankoh@gmail.com","user_email":"idorenyinankoh@gmail.com","first_name":"Idorenyin","last_name":"Ankoh","team_name":"#$@","company_name":"Axiom","branch_name":null,"user_phone_no":"2347065299551","role":"ADMIN","is_registered":true,"created_at":"2024-06-27T12:25:40.964243+01:00","status":"ACTIVE"},{"id":"5ed19094-33bf-4399-ae3d-bf0c0ae2b606","req_no":0,"phone_no":"2348138096550","email":"adetutuisinks@gmail.com","user_email":"adetutuisinks@gmail.com","first_name":"Adeyyy","last_name":"Sandra","team_name":"#$@","company_name":"Axiom","branch_name":null,"user_phone_no":"2348138096550","role":"ADMIN","is_registered":true,"created_at":"2024-06-27T12:25:40.925442+01:00","status":"ACTIVE"},{"id":"ace96ac6-b7ba-48ec-b986-6e8ac7d16bb8","req_no":0,"phone_no":null,"email":"ankoh@mailsac.com","user_email":"ankoh@mailsac.com","first_name":"boruto","last_name":"naruto","team_name":"Project","company_name":"Axiom","branch_name":null,"user_phone_no":"2349045090999","role":"ADMIN","is_registered":true,"created_at":"2024-06-27T12:07:47.411065+01:00","status":"ACTIVE"}]}