{"data_type":"COMPANY_GOALS","count":129,"next":"https://management.libertypayng.com/management/company_goal_list/?company_uuid=d59886b1-a587-4664-9e9d-e89f1ce83c6a&page=2","previous":null,"results":[{"id":"4f781e7b-a7c5-4519-8c11-f5607f63e638","name":"Future Goal","description":null,"period_name":"Q-1","period_start_date":"2025-02-05","period_end_date":"2025-11-12","is_active":false,"is_deleted":false,"created_by":null,"owner":[]},{"id":"80f03620-05ad-4644-a433-3f35a5ed753e","name":"test 10","description":null,"period_name":"Q-1","period_start_date":"2025-02-05","period_end_date":"2025-11-12","is_active":false,"is_deleted":false,"created_by":null,"owner":[]},{"id":"ab0db3d1-4db8-479b-867f-9970738d1cfc","name":"Future Goal","description":null,"period_name":"Q-1","period_start_date":"2025-02-05","period_end_date":"2025-11-12","is_active":false,"is_deleted":false,"created_by":null,"owner":[]},{"id":"e8d9d924-6371-4627-bc2b-7486082636f9","name":"test 10","description":null,"period_name":"Q-1","period_start_date":"2025-02-05","period_end_date":"2025-11-12","is_active":false,"is_deleted":false,"created_by":null,"owner":[]},{"id":"d681faa7-6360-4240-8b83-5cdbcdc230eb","name":"Future Goal","description":null,"period_name":"Q-1","period_start_date":"2025-02-05","period_end_date":"2025-11-12","is_active":false,"is_deleted":false,"created_by":null,"owner":[]},{"id":"a14f7e61-4da6-4127-8c10-a2c39be0d384","name":"test 10","description":null,"period_name":"Q-1","period_start_date":"2025-02-05","period_end_date":"2025-11-12","is_active":false,"is_deleted":false,"created_by":null,"owner":[]},{"id":"b521297d-6767-49c8-920b-ca91a0ca2d64","name":"Future Goal","description":null,"period_name":"Q-1","period_start_date":"2025-02-05","period_end_date":"2025-11-12","is_active":false,"is_deleted":false,"created_by":null,"owner":[]},{"id":"5f2b7048-3256-4739-a2ac-2c177e5768b6","name":"test 10","description":null,"period_name":"Q-1","period_start_date":"2025-02-05","period_end_date":"2025-11-12","is_active":false,"is_deleted":false,"created_by":null,"owner":[]},{"id":"f897aed6-ba0a-4cbf-8752-2cd760c68b27","name":"Future Goal","description":null,"period_name":"Q-1","period_start_date":"2025-02-05","period_end_date":"2025-11-12","is_active":false,"is_deleted":false,"created_by":null,"owner":[]},{"id":"b30118dd-ffb5-4f31-9fde-631681f2b0aa","name":"test 10","description":null,"period_name":"Q-1","period_start_date":"2025-02-05","period_end_date":"2025-11-12","is_active":false,"is_deleted":false,"created_by":null,"owner":[]},{"id":"7208793a-7e73-4178-a4e1-7d7b4303fe05","name":"Future Goal","description":null,"period_name":"Q-1","period_start_date":"2025-02-05","period_end_date":"2025-11-12","is_active":false,"is_deleted":false,"created_by":null,"owner":[]},{"id":"b0e4fe55-86b8-4f19-9b59-db899f302ff1","name":"test 10","description":null,"period_name":"Q-1","period_start_date":"2025-02-05","period_end_date":"2025-11-12","is_active":false,"is_deleted":false,"created_by":null,"owner":[]},{"id":"f6809daf-5597-4515-9a07-dfaf030cc23f","name":"Future Goal","description":null,"period_name":"Q-1","period_start_date":"2025-02-05","period_end_date":"2025-11-12","is_active":false,"is_deleted":false,"created_by":null,"owner":[]},{"id":"9331238e-706f-4a2f-96c5-a6526378d8ab","name":"test 10","description":null,"period_name":"Q-1","period_start_date":"2025-02-05","period_end_date":"2025-11-12","is_active":false,"is_deleted":false,"created_by":null,"owner":[]},{"id":"13d43400-9a23-4a83-8bb0-ad1e49986539","name":"Future Goal","description":null,"period_name":"Q-1","period_start_date":"2025-02-05","period_end_date":"2025-11-12","is_active":false,"is_deleted":false,"created_by":null,"owner":[]},{"id":"6bd781fa-7829-4b9a-8baa-e28271505821","name":"test 10","description":null,"period_name":"Q-1","period_start_date":"2025-02-05","period_end_date":"2025-11-12","is_active":false,"is_deleted":false,"created_by":null,"owner":[]},{"id":"dc5427d3-f656-4393-a90f-3571373bd7c7","name":"test 10","description":null,"period_name":"Q-1","period_start_date":"2025-02-05","period_end_date":"2025-11-12","is_active":false,"is_deleted":false,"created_by":null,"owner":[]},{"id":"b6a22e13-56a8-43c4-8bcc-03718b2b5f81","name":"test 10","description":null,"period_name":"Q-1","period_start_date":"2025-02-05","period_end_date":"2025-11-12","is_active":false,"is_deleted":false,"created_by":null,"owner":[]},{"id":"9ecca728-e360-4808-b3fe-601529c50fd3","name":"test 10","description":null,"period_name":"Q-1","period_start_date":"2025-02-05","period_end_date":"2025-11-12","is_active":false,"is_deleted":false,"created_by":null,"owner":[]},{"id":"d170fef5-41cb-4aa7-b4fd-1e6ad7d61823","name":"test 10","description":null,"period_name":"Q-1","period_start_date":"2025-02-05","period_end_date":"2025-11-12","is_active":false,"is_deleted":false,"created_by":null,"owner":[]},{"id":"0547360c-3e39-41ea-b926-b3d17553d753","name":"test 10","description":null,"period_name":"Q-1","period_start_date":"2025-02-05","period_end_date":"2025-11-12","is_active":false,"is_deleted":false,"created_by":null,"owner":[]},{"id":"d3665e17-86dc-4b89-8e7a-e50385c719fd","name":"test 10","description":null,"period_name":"Q-1","period_start_date":"2025-02-05","period_end_date":"2025-11-12","is_active":false,"is_deleted":false,"created_by":null,"owner":[]},{"id":"b51cf812-7fff-4133-8f51-b4aefffe422c","name":"test 10","description":null,"period_name":"Q-1","period_start_date":"2025-02-05","period_end_date":"2025-11-12","is_active":false,"is_deleted":false,"created_by":null,"owner":[]},{"id":"fef10cc2-fd8a-4aaf-920b-b5dfb44ecc14","name":"test 10","description":null,"period_name":"Q-1","period_start_date":"2025-02-05","period_end_date":"2025-11-12","is_active":false,"is_deleted":false,"created_by":null,"owner":[]},{"id":"3be83c1e-43a6-4892-81bd-7c6c0f68b1d2","name":"test 10","description":null,"period_name":"Q-1","period_start_date":"2025-02-05","period_end_date":"2025-11-12","is_active":false,"is_deleted":false,"created_by":null,"owner":[]},{"id":"019e38c6-63f7-48e5-91b7-af8b021cf364","name":"test 10","description":null,"period_name":"Q-1","period_start_date":"2025-02-05","period_end_date":"2025-11-12","is_active":false,"is_deleted":false,"created_by":null,"owner":[]},{"id":"d778578b-e375-4c21-abc5-d9be2cc9853a","name":"test 10","description":null,"period_name":"Q-1","period_start_date":"2025-02-05","period_end_date":"2025-11-12","is_active":false,"is_deleted":false,"created_by":null,"owner":[]},{"id":"9c789c28-51c7-40ef-b2f1-90a9eb9b9f13","name":"test 10","description":null,"period_name":"Q-1","period_start_date":"2025-02-05","period_end_date":"2025-11-12","is_active":false,"is_deleted":false,"created_by":null,"owner":[]},{"id":"17edce38-0e1a-4b3d-b0d2-d5fd4b4f72c3","name":"test 10","description":null,"period_name":"Q-1","period_start_date":"2025-02-05","period_end_date":"2025-11-12","is_active":false,"is_deleted":false,"created_by":null,"owner":[]},{"id":"6e2c0502-fab2-45a9-9c1a-e1367c263c63","name":"test 10","description":null,"period_name":"Q-1","period_start_date":"2025-02-05","period_end_date":"2025-11-12","is_active":false,"is_deleted":false,"created_by":null,"owner":[]},{"id":"2c6fd685-8adc-4e48-87fc-6ce247ebcf1c","name":"test 10","description":null,"period_name":"Q-1","period_start_date":"2025-02-05","period_end_date":"2025-11-12","is_active":false,"is_deleted":false,"created_by":null,"owner":[]},{"id":"f673d32d-7234-49da-966c-76e9ed440fe4","name":"test 10","description":null,"period_name":"Q-1","period_start_date":"2025-02-05","period_end_date":"2025-11-12","is_active":false,"is_deleted":false,"created_by":null,"owner":[]},{"id":"580a7551-b7fc-4a3e-8704-db734eb96876","name":"test 10","description":null,"period_name":"Q-1","period_start_date":"2025-02-05","period_end_date":"2025-11-12","is_active":false,"is_deleted":false,"created_by":null,"owner":[]},{"id":"90ecbe58-7546-46f6-9d1c-b3a828da9f47","name":"test 10","description":null,"period_name":"Q-1","period_start_date":"2025-02-05","period_end_date":"2025-11-12","is_active":false,"is_deleted":false,"created_by":null,"owner":[]},{"id":"3563a9db-a1e4-40f2-8634-6a9c3192a789","name":"test 10","description":null,"period_name":"Q-1","period_start_date":"2025-02-05","period_end_date":"2025-11-12","is_active":false,"is_deleted":false,"created_by":null,"owner":[]},{"id":"ee6565de-fea4-4d19-917f-987a53563611","name":"test 10","description":null,"period_name":"Q-1","period_start_date":"2025-02-05","period_end_date":"2025-11-12","is_active":false,"is_deleted":false,"created_by":null,"owner":[]},{"id":"a9179cca-6830-4c36-bf20-d9b7cd2781be","name":"test 10","description":null,"period_name":"Q-1","period_start_date":"2025-02-05","period_end_date":"2025-11-12","is_active":false,"is_deleted":false,"created_by":null,"owner":[]},{"id":"0f5ce3b2-d995-4640-88ce-cd5a2553be8a","name":"test 10","description":null,"period_name":"Q-1","period_start_date":"2025-02-05","period_end_date":"2025-11-12","is_active":false,"is_deleted":false,"created_by":null,"owner":[]},{"id":"c707d3aa-7b20-44a8-b079-17fda9ca031b","name":"test 10","description":null,"period_name":"Q-1","period_start_date":"2025-02-05","period_end_date":"2025-11-12","is_active":false,"is_deleted":false,"created_by":null,"owner":[]},{"id":"1cdf8c9d-f993-4dd8-b9c0-161c322087c7","name":"test 10","description":null,"period_name":"Q-1","period_start_date":"2025-02-05","period_end_date":"2025-11-12","is_active":false,"is_deleted":false,"created_by":null,"owner":[]},{"id":"3e5302f4-cac2-47f9-abca-52c0f1cc7398","name":"test 10","description":null,"period_name":"Q-1","period_start_date":"2025-02-05","period_end_date":"2025-11-12","is_active":false,"is_deleted":false,"created_by":null,"owner":[]},{"id":"66649556-959a-42cd-99f2-94fbf007fe51","name":"test 10","description":null,"period_name":"Q-1","period_start_date":"2025-02-05","period_end_date":"2025-11-12","is_active":false,"is_deleted":false,"created_by":null,"owner":[]},{"id":"f9d8920f-4ee9-4066-a130-990846820a71","name":"test 10","description":null,"period_name":"Q-1","period_start_date":"2025-02-05","period_end_date":"2025-11-12","is_active":false,"is_deleted":false,"created_by":null,"owner":[]},{"id":"73a6b5fd-24b0-413d-b071-7d094624f1de","name":"Future Goal","description":null,"period_name":"Q-1","period_start_date":"2025-02-05","period_end_date":"2025-11-12","is_active":false,"is_deleted":false,"created_by":null,"owner":[]},{"id":"53e3443d-c000-4eb8-b84e-2f7af440003a","name":"test 10","description":null,"period_name":"Q-1","period_start_date":"2025-02-05","period_end_date":"2025-11-12","is_active":false,"is_deleted":false,"created_by":null,"owner":[]},{"id":"49ea4d18-1c6a-47ac-8981-75ea1fac3990","name":"test 10","description":null,"period_name":"Q-1","period_start_date":"2025-02-05","period_end_date":"2025-11-12","is_active":false,"is_deleted":false,"created_by":null,"owner":[]},{"id":"6aaa61c3-2cd3-461d-a83b-08094221f478","name":"test 10","description":null,"period_name":"Q-1","period_start_date":"2025-02-05","period_end_date":"2025-11-12","is_active":false,"is_deleted":false,"created_by":null,"owner":[]},{"id":"32bd8a1e-a636-460c-a682-e0822ed83fa2","name":"test 10","description":null,"period_name":"Q-1","period_start_date":"2025-02-05","period_end_date":"2025-11-12","is_active":false,"is_deleted":false,"created_by":null,"owner":[]},{"id":"f8d62b38-1a39-4121-b1fd-3d721c99754a","name":"test 10","description":null,"period_name":"Q-1","period_start_date":"2025-02-05","period_end_date":"2025-11-12","is_active":false,"is_deleted":false,"created_by":null,"owner":[]},{"id":"6a088e89-4a02-4df2-9586-b440b9f9758d","name":"test 10","description":null,"period_name":"Q-1","period_start_date":"2025-02-05","period_end_date":"2025-11-12","is_active":false,"is_deleted":false,"created_by":null,"owner":[]},{"id":"1243b43b-98a1-48bc-a779-db8cd2f00760","name":"test 10","description":null,"period_name":"Q-1","period_start_date":"2025-02-05","period_end_date":"2025-11-12","is_active":false,"is_deleted":false,"created_by":null,"owner":[]},{"id":"bd1920f5-4dc8-45ab-9db7-9edf3edf5323","name":"test 10","description":null,"period_name":"Q-1","period_start_date":"2025-02-05","period_end_date":"2025-11-12","is_active":false,"is_deleted":false,"created_by":null,"owner":[]},{"id":"2c172375-685a-4b74-8e91-46e874ff4c73","name":"test 10","description":null,"period_name":"Q-1","period_start_date":"2025-02-05","period_end_date":"2025-11-12","is_active":false,"is_deleted":false,"created_by":null,"owner":[]},{"id":"b29282b5-0c3b-46a7-a5ff-1086ec5da32f","name":"test 10","description":null,"period_name":"Q-1","period_start_date":"2025-02-05","period_end_date":"2025-11-12","is_active":false,"is_deleted":false,"created_by":null,"owner":[]},{"id":"9b754b3a-3141-4fe2-92d1-bbb84fc7b74c","name":"test 10","description":null,"period_name":"Q-1","period_start_date":"2025-02-05","period_end_date":"2025-11-12","is_active":false,"is_deleted":false,"created_by":null,"owner":[]},{"id":"7ecf78ce-4572-4ca6-84f1-4979adaa5255","name":"test 10","description":null,"period_name":"Q-1","period_start_date":"2025-02-05","period_end_date":"2025-11-12","is_active":false,"is_deleted":false,"created_by":null,"owner":[]},{"id":"649ef432-6591-4965-95e9-85d7595871c2","name":"test 10","description":null,"period_name":"Q-1","period_start_date":"2025-02-05","period_end_date":"2025-11-12","is_active":false,"is_deleted":false,"created_by":null,"owner":[]},{"id":"d5ee5b9f-3248-476f-b5fe-09ced33d0601","name":"test 10","description":null,"period_name":"Q-1","period_start_date":"2025-02-05","period_end_date":"2025-11-12","is_active":false,"is_deleted":false,"created_by":null,"owner":[]},{"id":"2888bfff-6f18-4c18-a45c-0fb54560d5a9","name":"test 10","description":null,"period_name":"Q-1","period_start_date":"2025-02-05","period_end_date":"2025-11-12","is_active":false,"is_deleted":false,"created_by":null,"owner":[]},{"id":"d5994765-2895-45a2-9c40-5c37da1e612e","name":"test 10","description":null,"period_name":"Q-1","period_start_date":"2025-02-05","period_end_date":"2025-11-12","is_active":false,"is_deleted":false,"created_by":null,"owner":[]},{"id":"72d7ff2e-1ca4-4add-bb00-658d44de03ea","name":"test 10","description":null,"period_name":"Q-1","period_start_date":"2025-02-05","period_end_date":"2025-11-12","is_active":false,"is_deleted":false,"created_by":null,"owner":[]},{"id":"a5f923c6-9785-4936-82ff-8358ac7da119","name":"test 10","description":null,"period_name":"Q-1","period_start_date":"2025-02-05","period_end_date":"2025-11-12","is_active":false,"is_deleted":false,"created_by":null,"owner":[]},{"id":"a5417516-4767-47e6-ba1d-f0ce0f0c4414","name":"test 10","description":null,"period_name":"Q-1","period_start_date":"2025-02-05","period_end_date":"2025-11-12","is_active":false,"is_deleted":false,"created_by":null,"owner":[]},{"id":"36c628f8-6465-4909-8b75-9ac9f2efd7cf","name":"test 10","description":null,"period_name":"Q-1","period_start_date":"2025-02-05","period_end_date":"2025-11-12","is_active":false,"is_deleted":false,"created_by":null,"owner":[]},{"id":"38d17ecf-0263-4350-979c-20f3343714c3","name":"test 10","description":null,"period_name":"Q-1","period_start_date":"2025-02-05","period_end_date":"2025-11-12","is_active":false,"is_deleted":false,"created_by":null,"owner":[]},{"id":"cd26142a-2bb2-4beb-83e6-011a2bed0861","name":"test 10","description":null,"period_name":"Q-1","period_start_date":"2025-02-05","period_end_date":"2025-11-12","is_active":false,"is_deleted":false,"created_by":null,"owner":[]},{"id":"9a64137c-faf7-4926-a1f6-8fb408cb5022","name":"test 10","description":null,"period_name":"Q-1","period_start_date":"2025-02-05","period_end_date":"2025-11-12","is_active":false,"is_deleted":false,"created_by":null,"owner":[]},{"id":"701dfc9d-5d4e-4e59-875e-47f4cf836737","name":"test 10","description":null,"period_name":"Q-1","period_start_date":"2025-02-05","period_end_date":"2025-11-12","is_active":false,"is_deleted":false,"created_by":null,"owner":[]},{"id":"c3650c65-5d0e-46d7-b14f-d1678627e26d","name":"test 10","description":null,"period_name":"Q-1","period_start_date":"2025-02-05","period_end_date":"2025-11-12","is_active":false,"is_deleted":false,"created_by":null,"owner":[]},{"id":"7fd3e50b-ddb8-48f2-aa8c-263994ba85ed","name":"test 10","description":null,"period_name":"Q-1","period_start_date":"2025-02-05","period_end_date":"2025-11-12","is_active":false,"is_deleted":false,"created_by":null,"owner":[]},{"id":"2004031b-c54e-408e-aab0-5132cf00b552","name":"test 10","description":null,"period_name":"Q-1","period_start_date":"2025-02-05","period_end_date":"2025-11-12","is_active":false,"is_deleted":false,"created_by":null,"owner":[]},{"id":"09939902-7491-435d-9a09-5369e925c4ce","name":"test 10","description":null,"period_name":"Q-1","period_start_date":"2025-02-05","period_end_date":"2025-11-12","is_active":false,"is_deleted":false,"created_by":null,"owner":[]},{"id":"dfcf15a2-2b42-4218-83ad-0c9bf4a5dc54","name":"test 10","description":null,"period_name":"Q-1","period_start_date":"2025-02-05","period_end_date":"2025-11-12","is_active":false,"is_deleted":false,"created_by":null,"owner":[]},{"id":"7e1915cd-7eb3-442e-82dd-f0b465ed8c05","name":"test 10","description":null,"period_name":"Q-1","period_start_date":"2025-02-05","period_end_date":"2025-11-12","is_active":false,"is_deleted":false,"created_by":null,"owner":[]},{"id":"cdedbd96-7d47-4e7f-9366-5cdb0dad8f86","name":"test 10","description":null,"period_name":"Q-1","period_start_date":"2025-02-05","period_end_date":"2025-11-12","is_active":false,"is_deleted":false,"created_by":null,"owner":[]},{"id":"73d00932-0ae2-415d-8770-592ac8023ecb","name":"test 10","description":null,"period_name":"Q-1","period_start_date":"2025-02-05","period_end_date":"2025-11-12","is_active":false,"is_deleted":false,"created_by":null,"owner":[]},{"id":"95796d77-72c6-46bf-8ea8-dd1a4b21f35b","name":"test 10","description":null,"period_name":"Q-1","period_start_date":"2025-02-05","period_end_date":"2025-11-12","is_active":false,"is_deleted":false,"created_by":null,"owner":[]},{"id":"548d865e-be50-4173-b623-71aeb0a79217","name":"test 10","description":null,"period_name":"Q-1","period_start_date":"2025-02-05","period_end_date":"2025-11-12","is_active":false,"is_deleted":false,"created_by":null,"owner":[]},{"id":"84e16fc7-7c93-48b9-8153-8237a1c85c93","name":"test 10","description":null,"period_name":"Q-1","period_start_date":"2025-02-05","period_end_date":"2025-11-12","is_active":false,"is_deleted":false,"created_by":null,"owner":[]},{"id":"c0ade224-0150-4c05-bec7-7d1cd09ff5c3","name":"test 10","description":null,"period_name":"Q-1","period_start_date":"2025-02-05","period_end_date":"2025-11-12","is_active":false,"is_deleted":false,"created_by":null,"owner":[]},{"id":"0dc52b1f-c6a7-4ec4-82ae-c3b33c7bdbde","name":"test 10","description":null,"period_name":"Q-1","period_start_date":"2025-02-05","period_end_date":"2025-11-12","is_active":false,"is_deleted":false,"created_by":null,"owner":[]},{"id":"8442cda0-a044-417d-9de9-fc0cc676da47","name":"test 10","description":null,"period_name":"Q-1","period_start_date":"2025-02-05","period_end_date":"2025-11-12","is_active":false,"is_deleted":false,"created_by":null,"owner":[]},{"id":"a4829a5d-b91d-481f-98e2-f4818dd3cbf1","name":"test 10","description":null,"period_name":"Q-1","period_start_date":"2025-02-05","period_end_date":"2025-11-12","is_active":false,"is_deleted":false,"created_by":null,"owner":[]},{"id":"82f15da4-5c19-4431-8a7b-7ef582b0426f","name":"test 10","description":null,"period_name":"Q-1","period_start_date":"2025-02-05","period_end_date":"2025-11-12","is_active":false,"is_deleted":false,"created_by":null,"owner":[]},{"id":"08dc0ab7-ae99-4bdf-b1b0-d3b85dd7a8bb","name":"test 10","description":null,"period_name":"Q-1","period_start_date":"2025-02-05","period_end_date":"2025-11-12","is_active":false,"is_deleted":false,"created_by":null,"owner":[]},{"id":"af87c0e1-193f-489c-bb94-be7406d70afd","name":"test 10","description":null,"period_name":"Q-1","period_start_date":"2025-02-05","period_end_date":"2025-11-12","is_active":false,"is_deleted":false,"created_by":null,"owner":[]},{"id":"81d2aab7-0b9a-4ce0-b5a4-238e3c4be762","name":"test 10","description":null,"period_name":"Q-1","period_start_date":"2025-02-05","period_end_date":"2025-11-12","is_active":false,"is_deleted":false,"created_by":null,"owner":[]},{"id":"8bac9db6-aec0-4be9-82bc-f14575c7c4c2","name":"test 10","description":null,"period_name":"Q-1","period_start_date":"2025-02-05","period_end_date":"2025-11-12","is_active":false,"is_deleted":false,"created_by":null,"owner":[]},{"id":"4bc237b5-2d40-4d81-857b-95e671cfa8c7","name":"test 10","description":null,"period_name":"Q-1","period_start_date":"2025-02-05","period_end_date":"2025-11-12","is_active":false,"is_deleted":false,"created_by":null,"owner":[]},{"id":"a0c3061c-0e19-4075-9ad2-d4ef5f8bfd79","name":"test 10","description":null,"period_name":"Q-1","period_start_date":"2025-02-05","period_end_date":"2025-11-12","is_active":false,"is_deleted":false,"created_by":null,"owner":[]},{"id":"396b8495-f9ff-48ca-8b55-d225ef515ded","name":"test 10","description":null,"period_name":"Q-1","period_start_date":"2025-02-05","period_end_date":"2025-11-12","is_active":false,"is_deleted":false,"created_by":null,"owner":[]},{"id":"c4f0000d-8110-4554-8e05-1d95c65da931","name":"test 10","description":null,"period_name":"Q-1","period_start_date":"2025-02-05","period_end_date":"2025-11-12","is_active":false,"is_deleted":false,"created_by":null,"owner":[]},{"id":"ca6a8874-6445-4d2d-9f11-7697cc6ad5a1","name":"test 10","description":null,"period_name":"Q-1","period_start_date":"2025-02-05","period_end_date":"2025-11-12","is_active":false,"is_deleted":false,"created_by":null,"owner":[]},{"id":"19d371bd-c75e-4454-b730-139926a0e760","name":"test 10","description":null,"period_name":"Q-1","period_start_date":"2025-02-05","period_end_date":"2025-11-12","is_active":false,"is_deleted":false,"created_by":null,"owner":[]},{"id":"8490c9a7-84be-463a-87d9-252fdc301e52","name":"test 10","description":null,"period_name":"Q-1","period_start_date":"2025-02-05","period_end_date":"2025-11-12","is_active":false,"is_deleted":false,"created_by":null,"owner":[]},{"id":"d9727b18-df66-40cc-970b-b193479a1001","name":"test 10","description":null,"period_name":"Q-1","period_start_date":"2025-02-05","period_end_date":"2025-11-12","is_active":false,"is_deleted":false,"created_by":null,"owner":[]},{"id":"25a04cc4-48c8-4b3a-88c8-a73c56d540cc","name":"test 10","description":null,"period_name":"Q-1","period_start_date":"2025-02-05","period_end_date":"2025-11-12","is_active":false,"is_deleted":false,"created_by":null,"owner":[]},{"id":"5b90b634-d4f5-46c7-8a56-e6b9b8362f7f","name":"test 10","description":null,"period_name":"Q-1","period_start_date":"2025-02-05","period_end_date":"2025-11-12","is_active":false,"is_deleted":false,"created_by":null,"owner":[]},{"id":"0595749c-733a-4e01-9325-ad4d299488ec","name":"test 10","description":null,"period_name":"Q-1","period_start_date":"2025-02-05","period_end_date":"2025-11-12","is_active":false,"is_deleted":false,"created_by":null,"owner":[]},{"id":"3b533843-34fc-4302-aa74-224cc9c5c267","name":"test 10","description":null,"period_name":"Q-1","period_start_date":"2025-02-05","period_end_date":"2025-11-12","is_active":false,"is_deleted":false,"created_by":null,"owner":[]}]}