{"count":161,"next":"https://management.libertypayng.com/req/categories/?page=2","previous":null,"results":[{"title":"ACCESSORIES","budgeted":false},{"title":"ACCOUNTING FEES","budgeted":false},{"title":"AIR TRIP","budgeted":false},{"title":"ANNIVERSARIES","budgeted":false},{"title":"APPLIANCES","budgeted":false},{"title":"BABYSITTERS","budgeted":false},{"title":"BANK FEES","budgeted":false},{"title":"BEAUTY PRODUCTS","budgeted":false},{"title":"BIRTHDAYS","budgeted":false},{"title":"BOOKS AND MAGAZINES","budgeted":false},{"title":"BOOKS AND MATERIALS","budgeted":false},{"title":"BRANDING","budgeted":false},{"title":"CABLE OR INTERNET BILL","budgeted":false},{"title":"CABLE OR STREAMING SERVICES","budgeted":false},{"title":"CAR INSURANCE","budgeted":false},{"title":"CAR MAINTENANCE","budgeted":false},{"title":"CAR PAYMENTS","budgeted":false},{"title":"CAR RENTALS","budgeted":false},{"title":"CHARITABLE DONATIONS","budgeted":false},{"title":"CHARITABLE GIVING","budgeted":false},{"title":"CHILDCARE","budgeted":false},{"title":"CLOTHES","budgeted":false},{"title":"CLOTHING","budgeted":false},{"title":"COFFEE SHOPS","budgeted":false},{"title":"COMPUTERS","budgeted":false},{"title":"CONCERTS","budgeted":false},{"title":"CONDO OR HOA FEES","budgeted":false},{"title":"CONFERENCES","budgeted":false},{"title":"CONSULTING SERVICES","budgeted":false},{"title":"COURSES","budgeted":false},{"title":"CRAFTS","budgeted":false},{"title":"CREDIT CARD PAYMENTS","budgeted":false},{"title":"DAYCARE","budgeted":false},{"title":"DEBT PAYMENTS","budgeted":false},{"title":"DENTAL CARE","budgeted":false},{"title":"DINING OUT","budgeted":false},{"title":"DOCTOR VISITS","budgeted":false},{"title":"DONATIONS AND PHILANTHROPY","budgeted":false},{"title":"DRAWINGS","budgeted":false},{"title":"EDUCATION","budgeted":false},{"title":"EDUCATION EXPENSES","budgeted":false},{"title":"ELECTRICITY","budgeted":false},{"title":"ELECTRONICS","budgeted":false},{"title":"EMERGENCY FUND","budgeted":false},{"title":"ENTERTAINMENT","budgeted":false},{"title":"ENTERTAINMENT EXPENSES","budgeted":false},{"title":"FAST FOOD","budgeted":false},{"title":"FINANCIAL ADVISOR FEES","budgeted":false},{"title":"FINANCIAL SERVICES","budgeted":false},{"title":"FITNESS CLASSES","budgeted":false},{"title":"FLIGHTS","budgeted":false},{"title":"FLIGHTS AND HOTELS","budgeted":false},{"title":"FOOD","budgeted":false},{"title":"FOOD AND DINING","budgeted":false},{"title":"FUEL","budgeted":false},{"title":"FUELING","budgeted":false},{"title":"FURNITURE","budgeted":false},{"title":"GADGETS","budgeted":false},{"title":"GADGETS AND ELECTRONICS","budgeted":false},{"title":"GAMING","budgeted":false},{"title":"GIFTS","budgeted":false},{"title":"GIFTS FOR OTHERS","budgeted":false},{"title":"GROCERIES","budgeted":false},{"title":"GROCERIES AND COOKING","budgeted":false},{"title":"GYM MEMBERSHIP","budgeted":false},{"title":"GYM MEMBERSHIPS","budgeted":false},{"title":"GYM OR FITNESS MEMBERSHIPS","budgeted":false},{"title":"HAIRCUTS","budgeted":false},{"title":"HEALTH AND FITNESS","budgeted":false},{"title":"HEALTH AND MEDICAL INSURANCE","budgeted":false},{"title":"HEALTH AND WELLNESS","budgeted":false},{"title":"HEALTH INSURANCE","budgeted":false},{"title":"HEALTHCARE","budgeted":false},{"title":"HOBBIES","budgeted":false},{"title":"HOBBIES AND ENTERTAINMENT","budgeted":false},{"title":"HOBBY SUPPLIES","budgeted":false},{"title":"HOLIDAYS","budgeted":false},{"title":"HOME APPLIANCES","budgeted":false},{"title":"HOME DECOR","budgeted":false},{"title":"HOME IMPROVEMENT","budgeted":false},{"title":"HOME INSURANCE","budgeted":false},{"title":"HOME MAINTENANCE","budgeted":false},{"title":"HOME SUPPLIES","budgeted":false},{"title":"HOTELS","budgeted":false},{"title":"HOUSEHOLD SUPPLIES","budgeted":false},{"title":"HOUSING ASSOCIATION FEES","budgeted":false},{"title":"INCOME TAX","budgeted":false},{"title":"INFLUENCER MARKETING","budgeted":false},{"title":"INSURANCE","budgeted":false},{"title":"INTERNET AND PHONE","budgeted":false},{"title":"INVESTMENT FEES","budgeted":false},{"title":"INVESTMENTS","budgeted":false},{"title":"JINGLES ","budgeted":false},{"title":"LAWN CARE","budgeted":false},{"title":"LEGAL AND ACCOUNTING FEES","budgeted":false},{"title":"LEGAL FEES","budgeted":false},{"title":"LIFE INSURANCE","budgeted":false},{"title":"LOAN PAYMENTS","budgeted":false},{"title":"MAGAZINES","budgeted":false},{"title":"MARKETING","budgeted":false}]}