{"count":16,"next":"https://management.libertypayng.com/req/get-companies/?page=2","previous":null,"total_number_of_teams":18,"total_number_of_members":29,"requisition_count":5,"approved_requisition_count":0,"pending_requisition_count":5,"results":[{"id":"59dfc8f4-4c84-4490-bc91-68f5d2daf843","overall_running_budget":null,"company_name":"Jiji","teams":[{"id":"f62055e6-1262-453f-8f4a-7514bf66af7b","team_name":"Team Beta","team_type":"SPEND_MGMT","company_id":"59dfc8f4-4c84-4490-bc91-68f5d2daf843","company_name":"Jiji","branch":null,"members":[{"id":"bac5df1f-c4dc-43d9-9fe8-7068447f1c55","req_no":0,"phone_no":"08031814579","email":"abayomi5991@gmail.com","user_email":"abayomi5991@gmail.com","first_name":"oluwadamilare","last_name":"oguntuga","team_name":"Team Beta","company_name":"Jiji","branch_name":null,"user_phone_no":"2347054383514","role":"MEMBER","is_registered":true,"created_at":"2024-07-21T20:56:32.518207+01:00","status":"ACTIVE"},{"id":"94dfbb29-abf2-42ae-9d82-655e25e237e5","req_no":0,"phone_no":"07034256781","email":"adetutuisinks@gmail.com","user_email":"adetutuisinks@gmail.com","first_name":"Adeyyy","last_name":"Sandra","team_name":"Team Beta","company_name":"Jiji","branch_name":null,"user_phone_no":"2348138096550","role":"MEMBER","is_registered":true,"created_at":"2024-07-21T20:56:32.505992+01:00","status":"ACTIVE"},{"id":"c4c9c060-93f5-4be5-8255-629fe3b4dcab","req_no":0,"phone_no":"2348033675831","email":"hiyori@mailinator.com","user_email":"hiyori@mailinator.com","first_name":"Hiyori","last_name":"Kun","team_name":"Team Beta","company_name":"Jiji","branch_name":null,"user_phone_no":"2348033675831","role":"ADMIN","is_registered":true,"created_at":"2024-07-21T20:56:32.473434+01:00","status":"ACTIVE"}],"requisitions":0,"created_at":"2024-07-21T20:56:32.471037+01:00","allocated_amount":0,"spent_amount":0,"purse_balance":0.0,"total_active_allocation":0.0,"budget":null,"no_of_members":3,"approved_req":0,"pending_req":0},{"id":"13395aa4-ac3a-4056-8002-0da9551b2345","team_name":"Team Alpha","team_type":"SPEND_MGMT","company_id":"59dfc8f4-4c84-4490-bc91-68f5d2daf843","company_name":"Jiji","branch":null,"members":[{"id":"775e2eea-871d-412c-8cdc-012b743d4d11","req_no":0,"phone_no":"09088764748","email":"soloyede708@gmail.com","user_email":"soloyede708@gmail.com","first_name":"Oluwasegun","last_name":"Oloyede","team_name":"Team Alpha","company_name":"Jiji","branch_name":null,"user_phone_no":"2348102751337","role":"MEMBER","is_registered":true,"created_at":"2024-07-21T21:09:29.939159+01:00","status":"ACTIVE"},{"id":"57f89514-869e-4f13-9d06-51c2d549d703","req_no":0,"phone_no":"08031814579","email":"abayomi5991@gmail.com","user_email":"abayomi5991@gmail.com","first_name":"oluwadamilare","last_name":"oguntuga","team_name":"Team Alpha","company_name":"Jiji","branch_name":null,"user_phone_no":"2347054383514","role":"ADMIN","is_registered":true,"created_at":"2024-07-21T20:54:53.894951+01:00","status":"ACTIVE"},{"id":"31d41ca4-53d6-4813-afbe-c3f336173cee","req_no":0,"phone_no":"07034256781","email":"solaiya@gmail.com","user_email":null,"first_name":null,"last_name":null,"team_name":"Team Alpha","company_name":"Jiji","branch_name":null,"user_phone_no":null,"role":"MEMBER","is_registered":false,"created_at":"2024-07-21T20:54:53.882105+01:00","status":"NOT_JOINED"},{"id":"5eea78e2-aacb-46a7-9386-3aaf3562aa07","req_no":0,"phone_no":"2348033675831","email":"hiyori@mailinator.com","user_email":"hiyori@mailinator.com","first_name":"Hiyori","last_name":"Kun","team_name":"Team Alpha","company_name":"Jiji","branch_name":null,"user_phone_no":"2348033675831","role":"ADMIN","is_registered":true,"created_at":"2024-07-21T20:54:53.847925+01:00","status":"ACTIVE"}],"requisitions":0,"created_at":"2024-07-21T20:54:53.843867+01:00","allocated_amount":0,"spent_amount":0,"purse_balance":0.0,"total_active_allocation":0,"budget":{"id":94,"budget_name":"Spend Management 23","budget_amount":500000.0,"team_id":"13395aa4-ac3a-4056-8002-0da9551b2345","team_name":"Team Alpha","is_active":true,"start_date":"2024-07-21","end_date":"2024-07-31"},"no_of_members":4,"approved_req":0,"pending_req":0}],"created_at":"2024-07-21T20:53:49.951176+01:00","total_current_month_expenses":0,"current_month_expenses":[],"allocated_amount":0,"present_month_allocated_amount":0,"wallet":{"wallet_type":"MAIN","available_balance":0.0,"main_balance":0.0,"final_balance":0.0},"spend_mgmt_account_details":{"account_name":"","account_number":"","bank_name":"VFD Microfinance Bank"},"no_of_teams":2,"total_req":0,"approved_req":0,"pending_req":0,"no_of_members":7,"budget":[],"default":false},{"id":"5cbe5dac-a7f3-4ec6-a939-f15587ce9384","overall_running_budget":700000.0,"company_name":"Canva","teams":[{"id":"3e8c0a68-f92e-47ab-ab79-fa42133f1e09","team_name":"Team Alpha","team_type":"SPEND_MGMT","company_id":"5cbe5dac-a7f3-4ec6-a939-f15587ce9384","company_name":"Canva","branch":null,"members":[{"id":"461f21ee-949a-499b-874e-31d5c198057c","req_no":0,"phone_no":"09088764748","email":"soloyede708@gmail.com","user_email":"soloyede708@gmail.com","first_name":"Oluwasegun","last_name":"Oloyede","team_name":"Team Alpha","company_name":"Canva","branch_name":null,"user_phone_no":"2348102751337","role":"MEMBER","is_registered":true,"created_at":"2024-07-16T09:41:24.067913+01:00","status":"ACTIVE"},{"id":"a06ed53d-ec7f-4a72-8c9a-7461eda43035","req_no":0,"phone_no":"08031814579","email":"abayomi5991@gmail.com","user_email":"abayomi5991@gmail.com","first_name":"oluwadamilare","last_name":"oguntuga","team_name":"Team Alpha","company_name":"Canva","branch_name":null,"user_phone_no":"2347054383514","role":"MEMBER","is_registered":true,"created_at":"2024-07-15T15:47:22.253069+01:00","status":"ACTIVE"},{"id":"7d97b9d3-c7fe-4666-9ccf-d6669e5c97b0","req_no":0,"phone_no":"07034256781","email":"solaiya@gmail.com","user_email":null,"first_name":null,"last_name":null,"team_name":"Team Alpha","company_name":"Canva","branch_name":null,"user_phone_no":null,"role":"MEMBER","is_registered":false,"created_at":"2024-07-15T15:47:22.238676+01:00","status":"NOT_JOINED"},{"id":"63a12d49-4596-46eb-91ba-2bf193666118","req_no":5,"phone_no":"2348138096550","email":"adetutuisinks@gmail.com","user_email":"adetutuisinks@gmail.com","first_name":"Adeyyy","last_name":"Sandra","team_name":"Team Alpha","company_name":"Canva","branch_name":null,"user_phone_no":"2348138096550","role":"ADMIN","is_registered":true,"created_at":"2024-07-15T15:47:22.212876+01:00","status":"ACTIVE"}],"requisitions":5,"created_at":"2024-07-15T15:47:22.210750+01:00","allocated_amount":600.0,"spent_amount":0,"purse_balance":400.0,"total_active_allocation":200.0,"budget":{"id":90,"budget_name":"Spend Management 23","budget_amount":200000.0,"team_id":"3e8c0a68-f92e-47ab-ab79-fa42133f1e09","team_name":"Team Alpha","is_active":true,"start_date":"2024-07-16","end_date":"2024-07-31"},"no_of_members":4,"approved_req":0,"pending_req":5},{"id":"a523b126-1f17-41cf-9fad-f5237af0110e","team_name":"Team Beta","team_type":"SPEND_MGMT","company_id":"5cbe5dac-a7f3-4ec6-a939-f15587ce9384","company_name":"Canva","branch":null,"members":[{"id":"6f5fe571-47b5-4b58-876a-3cb9c28a5fbb","req_no":0,"phone_no":"08088764748","email":"doluyede709@gmail.com","user_email":null,"first_name":null,"last_name":null,"team_name":"Team Beta","company_name":"Canva","branch_name":null,"user_phone_no":null,"role":"MEMBER","is_registered":false,"created_at":"2024-07-16T09:37:16.628310+01:00","status":"NOT_JOINED"},{"id":"bb19aaf9-c7e5-426e-ad8a-492f1f18f5c1","req_no":0,"phone_no":"08088764748","email":"rakinyede709@gmail.com","user_email":null,"first_name":null,"last_name":null,"team_name":"Team Beta","company_name":"Canva","branch_name":null,"user_phone_no":null,"role":"MEMBER","is_registered":false,"created_at":"2024-07-16T09:36:40.195246+01:00","status":"NOT_JOINED"},{"id":"8735eaec-5b78-4167-be20-814fadd79168","req_no":0,"phone_no":"08088764748","email":"sakinyede70@gmail.com","user_email":null,"first_name":null,"last_name":null,"team_name":"Team Beta","company_name":"Canva","branch_name":null,"user_phone_no":null,"role":"MEMBER","is_registered":false,"created_at":"2024-07-16T09:36:00.482703+01:00","status":"NOT_JOINED"},{"id":"5f8fa4bb-f111-4cba-b01e-7630e8043ba3","req_no":0,"phone_no":"09088764748","email":"solomon708@gmail.com","user_email":null,"first_name":null,"last_name":null,"team_name":"Team Beta","company_name":"Canva","branch_name":null,"user_phone_no":null,"role":"MEMBER","is_registered":false,"created_at":"2024-07-16T09:22:46.428699+01:00","status":"NOT_JOINED"},{"id":"c3f28522-a3d5-499f-a2fd-3c9412898730","req_no":0,"phone_no":"08031814579","email":"abayomi5991@gmail.com","user_email":"abayomi5991@gmail.com","first_name":"oluwadamilare","last_name":"oguntuga","team_name":"Team Beta","company_name":"Canva","branch_name":null,"user_phone_no":"2347054383514","role":"MEMBER","is_registered":true,"created_at":"2024-07-15T15:44:34.985758+01:00","status":"ACTIVE"},{"id":"9acc712f-b2ee-402a-9cce-5e887f00c656","req_no":0,"phone_no":"07034256781","email":"soloyede708@gmail.com","user_email":"soloyede708@gmail.com","first_name":"Oluwasegun","last_name":"Oloyede","team_name":"Team Beta","company_name":"Canva","branch_name":null,"user_phone_no":"2348102751337","role":"MEMBER","is_registered":true,"created_at":"2024-07-15T15:44:34.974958+01:00","status":"ACTIVE"},{"id":"78255ef0-3f10-486f-b368-c3450fea7f06","req_no":0,"phone_no":"2348138096550","email":"adetutuisinks@gmail.com","user_email":"adetutuisinks@gmail.com","first_name":"Adeyyy","last_name":"Sandra","team_name":"Team Beta","company_name":"Canva","branch_name":null,"user_phone_no":"2348138096550","role":"ADMIN","is_registered":true,"created_at":"2024-07-15T15:44:34.943131+01:00","status":"ACTIVE"}],"requisitions":0,"created_at":"2024-07-15T15:44:34.939901+01:00","allocated_amount":0,"spent_amount":0,"purse_balance":0.0,"total_active_allocation":0.0,"budget":null,"no_of_members":7,"approved_req":0,"pending_req":0},{"id":"929030b3-67ea-4622-b0d3-36fc0ffc437b","team_name":"Test-Dev(Spend Management37)","team_type":"SPEND_MGMT","company_id":"5cbe5dac-a7f3-4ec6-a939-f15587ce9384","company_name":"Canva","branch":null,"members":[{"id":"9ebcf51e-de15-48e4-9d86-25cf4e57c328","req_no":0,"phone_no":"","email":"abayomi5991@gmail.com","user_email":"abayomi5991@gmail.com","first_name":"oluwadamilare","last_name":"oguntuga","team_name":"Test-Dev(Spend Management37)","company_name":"Canva","branch_name":null,"user_phone_no":"2347054383514","role":"SUB_ADMIN","is_registered":true,"created_at":"2024-07-15T15:38:58.706693+01:00","status":"ACTIVE"},{"id":"809f17f7-1a34-4b69-a69d-058f1576008f","req_no":0,"phone_no":"","email":"soloyede708@gmail.com","user_email":"soloyede708@gmail.com","first_name":"Oluwasegun","last_name":"Oloyede","team_name":"Test-Dev(Spend Management37)","company_name":"Canva","branch_name":null,"user_phone_no":"2348102751337","role":"MEMBER","is_registered":true,"created_at":"2024-07-15T15:38:58.689022+01:00","status":"ACTIVE"},{"id":"3a73dc6c-71d4-48af-a5d5-b5d8009d7cd2","req_no":0,"phone_no":"2348138096550","email":"adetutuisinks@gmail.com","user_email":"adetutuisinks@gmail.com","first_name":"Adeyyy","last_name":"Sandra","team_name":"Test-Dev(Spend Management37)","company_name":"Canva","branch_name":null,"user_phone_no":"2348138096550","role":"ADMIN","is_registered":true,"created_at":"2024-07-15T15:38:58.657100+01:00","status":"ACTIVE"}],"requisitions":0,"created_at":"2024-07-15T15:38:58.653122+01:00","allocated_amount":0,"spent_amount":0,"purse_balance":0.0,"total_active_allocation":0.0,"budget":null,"no_of_members":3,"approved_req":0,"pending_req":0}],"created_at":"2024-07-15T15:26:28.903914+01:00","total_current_month_expenses":0,"current_month_expenses":[],"allocated_amount":600.0,"present_month_allocated_amount":600.0,"wallet":{"wallet_type":"MAIN","available_balance":0.0,"main_balance":0.0,"final_balance":-600.0},"spend_mgmt_account_details":{"account_name":"","account_number":"","bank_name":"VFD Microfinance Bank"},"no_of_teams":3,"total_req":5,"approved_req":0,"pending_req":5,"no_of_members":14,"budget":[{"id":94,"company_id":"5cbe5dac-a7f3-4ec6-a939-f15587ce9384","team_id":"13395aa4-ac3a-4056-8002-0da9551b2345","budget_name":"Spend Management 23","budget_amount":500000.0,"budget_type":"COMPANY","start_date":"2024-07-21","end_date":"2024-08-01","created_at":"2024-07-21T20:18:23.951656Z"},{"id":90,"company_id":"5cbe5dac-a7f3-4ec6-a939-f15587ce9384","team_id":"3e8c0a68-f92e-47ab-ab79-fa42133f1e09","budget_name":"Spend Management 23","budget_amount":200000.0,"budget_type":"COMPANY","start_date":"2024-07-16","end_date":"2024-08-01","created_at":"2024-07-16T10:07:21.849397Z"}],"default":false},{"id":"15246c1e-970c-4c17-ad81-00d500b0de97","overall_running_budget":null,"company_name":"Blues","teams":[],"created_at":"2024-07-05T12:50:00.604135+01:00","total_current_month_expenses":0,"current_month_expenses":[],"allocated_amount":0,"present_month_allocated_amount":0,"wallet":{"wallet_type":"MAIN","available_balance":0.0,"main_balance":0.0,"final_balance":0},"spend_mgmt_account_details":{"account_name":"","account_number":"","bank_name":"VFD Microfinance Bank"},"no_of_teams":0,"total_req":0,"approved_req":0,"pending_req":0,"no_of_members":0,"budget":[],"default":false},{"id":"7fbab9b4-0cc1-4a14-9d2f-b24bfe5b6930","overall_running_budget":null,"company_name":"Light","teams":[],"created_at":"2024-07-05T12:47:57.441818+01:00","total_current_month_expenses":0,"current_month_expenses":[],"allocated_amount":0,"present_month_allocated_amount":0,"wallet":{"wallet_type":"MAIN","available_balance":0.0,"main_balance":0.0,"final_balance":0},"spend_mgmt_account_details":{"account_name":"","account_number":"","bank_name":"VFD Microfinance Bank"},"no_of_teams":0,"total_req":0,"approved_req":0,"pending_req":0,"no_of_members":0,"budget":[],"default":false},{"id":"150ebb53-c6f6-4f9a-919a-35b0fc310c0e","overall_running_budget":null,"company_name":"Liighter","teams":[],"created_at":"2024-07-05T12:43:49.533154+01:00","total_current_month_expenses":0,"current_month_expenses":[],"allocated_amount":0,"present_month_allocated_amount":0,"wallet":{"wallet_type":"MAIN","available_balance":0.0,"main_balance":0.0,"final_balance":0},"spend_mgmt_account_details":{"account_name":"","account_number":"","bank_name":"VFD Microfinance Bank"},"no_of_teams":0,"total_req":0,"approved_req":0,"pending_req":0,"no_of_members":0,"budget":[],"default":false},{"id":"63981120-d907-4a85-a6ce-b23139744c62","overall_running_budget":null,"company_name":"Lighter","teams":[],"created_at":"2024-07-05T12:37:37.874883+01:00","total_current_month_expenses":0,"current_month_expenses":[],"allocated_amount":0,"present_month_allocated_amount":0,"wallet":{"wallet_type":"MAIN","available_balance":0.0,"main_balance":0.0,"final_balance":0},"spend_mgmt_account_details":{"account_name":"","account_number":"","bank_name":"VFD Microfinance Bank"},"no_of_teams":0,"total_req":0,"approved_req":0,"pending_req":0,"no_of_members":0,"budget":[],"default":false},{"id":"c942a3f6-0a57-44b6-b204-3c541be51a26","overall_running_budget":null,"company_name":"Lighters","teams":[],"created_at":"2024-07-05T12:24:22.606193+01:00","total_current_month_expenses":0,"current_month_expenses":[],"allocated_amount":0,"present_month_allocated_amount":0,"wallet":{"wallet_type":"MAIN","available_balance":0.0,"main_balance":0.0,"final_balance":0},"spend_mgmt_account_details":{"account_name":"","account_number":"","bank_name":"VFD Microfinance Bank"},"no_of_teams":0,"total_req":0,"approved_req":0,"pending_req":0,"no_of_members":0,"budget":[],"default":false},{"id":"4edc88d0-9865-46b4-b62a-7499f1552a84","overall_running_budget":null,"company_name":"Lighthouse","teams":[],"created_at":"2024-07-05T12:17:58.949249+01:00","total_current_month_expenses":0,"current_month_expenses":[],"allocated_amount":0,"present_month_allocated_amount":0,"wallet":{"wallet_type":"MAIN","available_balance":0.0,"main_balance":0.0,"final_balance":0},"spend_mgmt_account_details":{"account_name":"","account_number":"","bank_name":"VFD Microfinance Bank"},"no_of_teams":0,"total_req":0,"approved_req":0,"pending_req":0,"no_of_members":0,"budget":[],"default":false},{"id":"e14eaeb2-3154-4319-b197-03904bee3c3f","overall_running_budget":null,"company_name":"Xyz","teams":[],"created_at":"2024-06-30T05:31:50.045946+01:00","total_current_month_expenses":0,"current_month_expenses":[],"allocated_amount":0,"present_month_allocated_amount":0,"wallet":{"wallet_type":"MAIN","available_balance":0.0,"main_balance":0.0,"final_balance":0},"spend_mgmt_account_details":{"account_name":"","account_number":"","bank_name":"VFD Microfinance Bank"},"no_of_teams":0,"total_req":0,"approved_req":0,"pending_req":0,"no_of_members":0,"budget":[],"default":false},{"id":"166ef136-aad5-4870-9130-3ebc85472eff","overall_running_budget":50000.0,"company_name":"Axiom","teams":[{"id":"71295d4c-c111-405c-82dd-2fce5950dc15","team_name":"Axiom Team","team_type":"PAYROLL","company_id":"166ef136-aad5-4870-9130-3ebc85472eff","company_name":"Axiom","branch":null,"members":[{"id":"cdc0110a-3c34-42b8-bc35-9c1353e17be6","req_no":0,"phone_no":"09088764748","email":"soloyede708@gmail.com","user_email":"soloyede708@gmail.com","first_name":"Oluwasegun","last_name":"Oloyede","team_name":"Axiom Team","company_name":"Axiom","branch_name":null,"user_phone_no":"2348102751337","role":"MEMBER","is_registered":true,"created_at":"2024-07-16T09:49:29.985842+01:00","status":"ACTIVE"},{"id":"6004793e-22ec-4eb4-ac5a-9a4217f589ef","req_no":0,"phone_no":"2348023769806","email":"madre@liberty.com","user_email":null,"first_name":null,"last_name":null,"team_name":"Axiom Team","company_name":"Axiom","branch_name":null,"user_phone_no":null,"role":"MEMBER","is_registered":false,"created_at":"2024-07-13T07:48:24.919355+01:00","status":"NOT_JOINED"},{"id":"91484f94-eefd-4319-820b-6935de045265","req_no":0,"phone_no":"2348023769806","email":"draemon@gmail.com","user_email":null,"first_name":null,"last_name":null,"team_name":"Axiom Team","company_name":"Axiom","branch_name":null,"user_phone_no":null,"role":"MEMBER","is_registered":false,"created_at":"2024-07-13T07:48:24.777049+01:00","status":"NOT_JOINED"},{"id":"ee74dfb6-886c-42fc-8fd0-e62b853e0338","req_no":0,"phone_no":"2348023769806","email":"oreade@gmail.com","user_email":null,"first_name":null,"last_name":null,"team_name":"Axiom Team","company_name":"Axiom","branch_name":null,"user_phone_no":null,"role":"MEMBER","is_registered":false,"created_at":"2024-07-05T14:17:42.720702+01:00","status":"NOT_JOINED"},{"id":"809013f5-ce63-48f8-943e-cc118e444a12","req_no":0,"phone_no":"2348023769806","email":"mariam@liberty.com","user_email":null,"first_name":null,"last_name":null,"team_name":"Axiom Team","company_name":"Axiom","branch_name":null,"user_phone_no":null,"role":"MEMBER","is_registered":false,"created_at":"2024-07-05T14:14:25.910849+01:00","status":"NOT_JOINED"},{"id":"bcca9988-18a7-46e7-a4ec-0a886c3ce30f","req_no":0,"phone_no":"2348023769806","email":"docrozay@gmail.com","user_email":null,"first_name":null,"last_name":null,"team_name":"Axiom Team","company_name":"Axiom","branch_name":null,"user_phone_no":null,"role":"MEMBER","is_registered":false,"created_at":"2024-07-05T14:14:25.879032+01:00","status":"NOT_JOINED"},{"id":"4de4c481-a6fd-4a9d-8820-4749b1bbc2b8","req_no":0,"phone_no":"2348138096550","email":"adetutuisinks@gmail.com","user_email":"adetutuisinks@gmail.com","first_name":"Adeyyy","last_name":"Sandra","team_name":"Axiom Team","company_name":"Axiom","branch_name":null,"user_phone_no":"2348138096550","role":"ADMIN","is_registered":true,"created_at":"2024-07-05T14:14:25.795637+01:00","status":"ACTIVE"}],"requisitions":0,"created_at":"2024-07-05T14:14:25.792596+01:00","allocated_amount":0,"spent_amount":0,"purse_balance":0.0,"total_active_allocation":0.0,"budget":null,"no_of_members":7,"approved_req":0,"pending_req":0},{"id":"be1560cd-e754-4743-a329-4d722cd274d8","team_name":"Solutions","team_type":"SPEND_MGMT","company_id":"166ef136-aad5-4870-9130-3ebc85472eff","company_name":"Axiom","branch":null,"members":[{"id":"3d010299-2290-4e9c-95e3-497ff4f50e13","req_no":0,"phone_no":null,"email":"ada@mailsac.com","user_email":"ada@mailsac.com","first_name":"Mitsuki","last_name":"Lee","team_name":"Solutions","company_name":"Axiom","branch_name":null,"user_phone_no":"2348157358580","role":"MEMBER","is_registered":true,"created_at":"2024-06-29T07:05:41.915018+01:00","status":"ACTIVE"},{"id":"d92ca6ac-d049-4225-8a75-bf4ca98f9806","req_no":0,"phone_no":"2348138096550","email":"adetutuisinks@gmail.com","user_email":"adetutuisinks@gmail.com","first_name":"Adeyyy","last_name":"Sandra","team_name":"Solutions","company_name":"Axiom","branch_name":null,"user_phone_no":"2348138096550","role":"ADMIN","is_registered":true,"created_at":"2024-06-29T07:05:41.886073+01:00","status":"ACTIVE"}],"requisitions":0,"created_at":"2024-06-29T07:05:41.882069+01:00","allocated_amount":0,"spent_amount":0,"purse_balance":0.0,"total_active_allocation":0,"budget":{"id":86,"budget_name":"trees","budget_amount":20000.0,"team_id":"be1560cd-e754-4743-a329-4d722cd274d8","team_name":"Solutions","is_active":true,"start_date":"2024-07-01","end_date":"2024-07-30"},"no_of_members":2,"approved_req":0,"pending_req":0},{"id":"1940e95f-768b-4b05-a312-84ab621e0b7a","team_name":"#$@","team_type":"SPEND_MGMT","company_id":"166ef136-aad5-4870-9130-3ebc85472eff","company_name":"Axiom","branch":null,"members":[{"id":"1785cec9-eb07-4285-bb5d-cb2c9c2b405f","req_no":0,"phone_no":null,"email":"idorenyinankoh@gmail.com","user_email":"idorenyinankoh@gmail.com","first_name":"Idorenyin","last_name":"Ankoh","team_name":"#$@","company_name":"Axiom","branch_name":null,"user_phone_no":"2347065299551","role":"ADMIN","is_registered":true,"created_at":"2024-06-27T12:25:40.964243+01:00","status":"ACTIVE"},{"id":"5ed19094-33bf-4399-ae3d-bf0c0ae2b606","req_no":0,"phone_no":"2348138096550","email":"adetutuisinks@gmail.com","user_email":"adetutuisinks@gmail.com","first_name":"Adeyyy","last_name":"Sandra","team_name":"#$@","company_name":"Axiom","branch_name":null,"user_phone_no":"2348138096550","role":"ADMIN","is_registered":true,"created_at":"2024-06-27T12:25:40.925442+01:00","status":"ACTIVE"}],"requisitions":0,"created_at":"2024-06-27T12:25:40.922158+01:00","allocated_amount":0,"spent_amount":0,"purse_balance":0.0,"total_active_allocation":0.0,"budget":null,"no_of_members":2,"approved_req":0,"pending_req":0},{"id":"478aae31-282e-4e6e-ba7e-17057cdd15c8","team_name":"Project","team_type":"SPEND_MGMT","company_id":"166ef136-aad5-4870-9130-3ebc85472eff","company_name":"Axiom","branch":null,"members":[{"id":"fc34262f-a79a-4958-8378-71c2c4159fdd","req_no":0,"phone_no":null,"email":"ogunmola.akinwumi@yahoo.com","user_email":"ogunmola.akinwumi@yahoo.com","first_name":"Boruto","last_name":"Uzumaki","team_name":"Project","company_name":"Axiom","branch_name":null,"user_phone_no":"2347031814578","role":"MEMBER","is_registered":true,"created_at":"2024-06-27T12:07:47.420656+01:00","status":"ACTIVE"},{"id":"ace96ac6-b7ba-48ec-b986-6e8ac7d16bb8","req_no":0,"phone_no":null,"email":"ankoh@mailsac.com","user_email":"ankoh@mailsac.com","first_name":"boruto","last_name":"naruto","team_name":"Project","company_name":"Axiom","branch_name":null,"user_phone_no":"2349045090999","role":"ADMIN","is_registered":true,"created_at":"2024-06-27T12:07:47.411065+01:00","status":"ACTIVE"},{"id":"d4d84226-e0f7-464e-98c7-5b680a29a856","req_no":0,"phone_no":"2348138096550","email":"adetutuisinks@gmail.com","user_email":"adetutuisinks@gmail.com","first_name":"Adeyyy","last_name":"Sandra","team_name":"Project","company_name":"Axiom","branch_name":null,"user_phone_no":"2348138096550","role":"ADMIN","is_registered":true,"created_at":"2024-06-27T12:07:47.377878+01:00","status":"ACTIVE"}],"requisitions":0,"created_at":"2024-06-27T12:07:47.374889+01:00","allocated_amount":20000.0,"spent_amount":0,"purse_balance":20000.0,"total_active_allocation":0,"budget":{"id":82,"budget_name":"Allowance","budget_amount":30000.0,"team_id":"478aae31-282e-4e6e-ba7e-17057cdd15c8","team_name":"Project","is_active":true,"start_date":"2024-07-01","end_date":"2024-07-30"},"no_of_members":3,"approved_req":0,"pending_req":0},{"id":"d7a3aab9-84ee-489f-a1ff-577b7dc86b94","team_name":"Technical","team_type":"SPEND_MGMT","company_id":"166ef136-aad5-4870-9130-3ebc85472eff","company_name":"Axiom","branch":null,"members":[{"id":"fa603dad-aa04-462b-8024-2b35269f5d36","req_no":0,"phone_no":null,"email":"ogunmola.akinwumi@yahoo.com","user_email":"ogunmola.akinwumi@yahoo.com","first_name":"Boruto","last_name":"Uzumaki","team_name":"Technical","company_name":"Axiom","branch_name":null,"user_phone_no":"2347031814578","role":"ADMIN","is_registered":true,"created_at":"2024-06-27T12:00:40.967014+01:00","status":"ACTIVE"},{"id":"a083e8f4-15a3-4da1-9b0c-6a6804c9041c","req_no":0,"phone_no":"2348138096550","email":"adetutuisinks@gmail.com","user_email":"adetutuisinks@gmail.com","first_name":"Adeyyy","last_name":"Sandra","team_name":"Technical","company_name":"Axiom","branch_name":null,"user_phone_no":"2348138096550","role":"ADMIN","is_registered":true,"created_at":"2024-06-27T12:00:40.924498+01:00","status":"ACTIVE"}],"requisitions":0,"created_at":"2024-06-27T12:00:40.921875+01:00","allocated_amount":200.0,"spent_amount":0,"purse_balance":0.0,"total_active_allocation":0.0,"budget":null,"no_of_members":2,"approved_req":0,"pending_req":0}],"created_at":"2024-06-27T11:04:38.327577+01:00","total_current_month_expenses":0,"current_month_expenses":[],"allocated_amount":20200.0,"present_month_allocated_amount":0,"wallet":{"wallet_type":"MAIN","available_balance":0.0,"main_balance":0.0,"final_balance":-20200.0},"spend_mgmt_account_details":{"account_name":"","account_number":"","bank_name":"VFD Microfinance Bank"},"no_of_teams":5,"total_req":0,"approved_req":0,"pending_req":0,"no_of_members":16,"budget":[{"id":86,"company_id":"166ef136-aad5-4870-9130-3ebc85472eff","team_id":"be1560cd-e754-4743-a329-4d722cd274d8","budget_name":"trees","budget_amount":20000.0,"budget_type":"COMPANY","start_date":"2024-07-01","end_date":"2024-07-31","created_at":"2024-06-29T12:24:47.474422Z"},{"id":82,"company_id":"166ef136-aad5-4870-9130-3ebc85472eff","team_id":"478aae31-282e-4e6e-ba7e-17057cdd15c8","budget_name":"Allowance","budget_amount":30000.0,"budget_type":"COMPANY","start_date":"2024-07-01","end_date":"2024-07-31","created_at":"2024-06-27T11:55:54.080970Z"}],"default":false}]}