{"count":19,"next":"https://management.libertypayng.com/req/get-teams/?page=2","previous":null,"company_name":"Jiji","results":[{"id":"f62055e6-1262-453f-8f4a-7514bf66af7b","team_name":"Team Beta","team_type":"SPEND_MGMT","company_id":"59dfc8f4-4c84-4490-bc91-68f5d2daf843","company_name":"Jiji","branch":null,"members":[{"id":"bac5df1f-c4dc-43d9-9fe8-7068447f1c55","req_no":0,"phone_no":"08031814579","email":"abayomi5991@gmail.com","user_email":"abayomi5991@gmail.com","first_name":"oluwadamilare","last_name":"oguntuga","team_name":"Team Beta","company_name":"Jiji","branch_name":null,"user_phone_no":"2347054383514","role":"MEMBER","is_registered":true,"created_at":"2024-07-21T20:56:32.518207+01:00","status":"ACTIVE"},{"id":"94dfbb29-abf2-42ae-9d82-655e25e237e5","req_no":0,"phone_no":"07034256781","email":"adetutuisinks@gmail.com","user_email":"adetutuisinks@gmail.com","first_name":"Adeyyy","last_name":"Sandra","team_name":"Team Beta","company_name":"Jiji","branch_name":null,"user_phone_no":"2348138096550","role":"MEMBER","is_registered":true,"created_at":"2024-07-21T20:56:32.505992+01:00","status":"ACTIVE"},{"id":"c4c9c060-93f5-4be5-8255-629fe3b4dcab","req_no":0,"phone_no":"2348033675831","email":"hiyori@mailinator.com","user_email":"hiyori@mailinator.com","first_name":"Hiyori","last_name":"Kun","team_name":"Team Beta","company_name":"Jiji","branch_name":null,"user_phone_no":"2348033675831","role":"ADMIN","is_registered":true,"created_at":"2024-07-21T20:56:32.473434+01:00","status":"ACTIVE"}],"requisitions":0,"created_at":"2024-07-21T20:56:32.471037+01:00","allocated_amount":0,"spent_amount":0,"purse_balance":0.0,"total_active_allocation":0.0,"budget":null,"no_of_members":3,"approved_req":0,"pending_req":0},{"id":"3e8c0a68-f92e-47ab-ab79-fa42133f1e09","team_name":"Team Alpha","team_type":"SPEND_MGMT","company_id":"5cbe5dac-a7f3-4ec6-a939-f15587ce9384","company_name":"Canva","branch":null,"members":[{"id":"461f21ee-949a-499b-874e-31d5c198057c","req_no":0,"phone_no":"09088764748","email":"soloyede708@gmail.com","user_email":"soloyede708@gmail.com","first_name":"Oluwasegun","last_name":"Oloyede","team_name":"Team Alpha","company_name":"Canva","branch_name":null,"user_phone_no":"2348102751337","role":"MEMBER","is_registered":true,"created_at":"2024-07-16T09:41:24.067913+01:00","status":"ACTIVE"},{"id":"a06ed53d-ec7f-4a72-8c9a-7461eda43035","req_no":0,"phone_no":"08031814579","email":"abayomi5991@gmail.com","user_email":"abayomi5991@gmail.com","first_name":"oluwadamilare","last_name":"oguntuga","team_name":"Team Alpha","company_name":"Canva","branch_name":null,"user_phone_no":"2347054383514","role":"MEMBER","is_registered":true,"created_at":"2024-07-15T15:47:22.253069+01:00","status":"ACTIVE"},{"id":"7d97b9d3-c7fe-4666-9ccf-d6669e5c97b0","req_no":0,"phone_no":"07034256781","email":"solaiya@gmail.com","user_email":null,"first_name":null,"last_name":null,"team_name":"Team Alpha","company_name":"Canva","branch_name":null,"user_phone_no":null,"role":"MEMBER","is_registered":false,"created_at":"2024-07-15T15:47:22.238676+01:00","status":"NOT_JOINED"},{"id":"63a12d49-4596-46eb-91ba-2bf193666118","req_no":9,"phone_no":"2348138096550","email":"adetutuisinks@gmail.com","user_email":"adetutuisinks@gmail.com","first_name":"Adeyyy","last_name":"Sandra","team_name":"Team Alpha","company_name":"Canva","branch_name":null,"user_phone_no":"2348138096550","role":"ADMIN","is_registered":true,"created_at":"2024-07-15T15:47:22.212876+01:00","status":"ACTIVE"}],"requisitions":9,"created_at":"2024-07-15T15:47:22.210750+01:00","allocated_amount":3000.0,"spent_amount":0,"purse_balance":2600.0,"total_active_allocation":400.0,"budget":{"id":90,"budget_name":"Spend Management 23","budget_amount":200000.0,"team_id":"3e8c0a68-f92e-47ab-ab79-fa42133f1e09","team_name":"Team Alpha","is_active":true,"start_date":"2024-07-16","end_date":"2024-07-31"},"no_of_members":4,"approved_req":0,"pending_req":9},{"id":"a523b126-1f17-41cf-9fad-f5237af0110e","team_name":"Team Beta","team_type":"SPEND_MGMT","company_id":"5cbe5dac-a7f3-4ec6-a939-f15587ce9384","company_name":"Canva","branch":null,"members":[{"id":"6f5fe571-47b5-4b58-876a-3cb9c28a5fbb","req_no":0,"phone_no":"08088764748","email":"doluyede709@gmail.com","user_email":null,"first_name":null,"last_name":null,"team_name":"Team Beta","company_name":"Canva","branch_name":null,"user_phone_no":null,"role":"MEMBER","is_registered":false,"created_at":"2024-07-16T09:37:16.628310+01:00","status":"NOT_JOINED"},{"id":"bb19aaf9-c7e5-426e-ad8a-492f1f18f5c1","req_no":0,"phone_no":"08088764748","email":"rakinyede709@gmail.com","user_email":null,"first_name":null,"last_name":null,"team_name":"Team Beta","company_name":"Canva","branch_name":null,"user_phone_no":null,"role":"MEMBER","is_registered":false,"created_at":"2024-07-16T09:36:40.195246+01:00","status":"NOT_JOINED"},{"id":"8735eaec-5b78-4167-be20-814fadd79168","req_no":0,"phone_no":"08088764748","email":"sakinyede70@gmail.com","user_email":null,"first_name":null,"last_name":null,"team_name":"Team Beta","company_name":"Canva","branch_name":null,"user_phone_no":null,"role":"MEMBER","is_registered":false,"created_at":"2024-07-16T09:36:00.482703+01:00","status":"NOT_JOINED"},{"id":"5f8fa4bb-f111-4cba-b01e-7630e8043ba3","req_no":0,"phone_no":"09088764748","email":"solomon708@gmail.com","user_email":null,"first_name":null,"last_name":null,"team_name":"Team Beta","company_name":"Canva","branch_name":null,"user_phone_no":null,"role":"MEMBER","is_registered":false,"created_at":"2024-07-16T09:22:46.428699+01:00","status":"NOT_JOINED"},{"id":"c3f28522-a3d5-499f-a2fd-3c9412898730","req_no":0,"phone_no":"08031814579","email":"abayomi5991@gmail.com","user_email":"abayomi5991@gmail.com","first_name":"oluwadamilare","last_name":"oguntuga","team_name":"Team Beta","company_name":"Canva","branch_name":null,"user_phone_no":"2347054383514","role":"MEMBER","is_registered":true,"created_at":"2024-07-15T15:44:34.985758+01:00","status":"ACTIVE"},{"id":"9acc712f-b2ee-402a-9cce-5e887f00c656","req_no":0,"phone_no":"07034256781","email":"soloyede708@gmail.com","user_email":"soloyede708@gmail.com","first_name":"Oluwasegun","last_name":"Oloyede","team_name":"Team Beta","company_name":"Canva","branch_name":null,"user_phone_no":"2348102751337","role":"MEMBER","is_registered":true,"created_at":"2024-07-15T15:44:34.974958+01:00","status":"ACTIVE"},{"id":"78255ef0-3f10-486f-b368-c3450fea7f06","req_no":0,"phone_no":"2348138096550","email":"adetutuisinks@gmail.com","user_email":"adetutuisinks@gmail.com","first_name":"Adeyyy","last_name":"Sandra","team_name":"Team Beta","company_name":"Canva","branch_name":null,"user_phone_no":"2348138096550","role":"ADMIN","is_registered":true,"created_at":"2024-07-15T15:44:34.943131+01:00","status":"ACTIVE"}],"requisitions":0,"created_at":"2024-07-15T15:44:34.939901+01:00","allocated_amount":0,"spent_amount":0,"purse_balance":0.0,"total_active_allocation":0.0,"budget":null,"no_of_members":7,"approved_req":0,"pending_req":0},{"id":"929030b3-67ea-4622-b0d3-36fc0ffc437b","team_name":"Test-Dev(Spend Management37)","team_type":"SPEND_MGMT","company_id":"5cbe5dac-a7f3-4ec6-a939-f15587ce9384","company_name":"Canva","branch":null,"members":[{"id":"9ebcf51e-de15-48e4-9d86-25cf4e57c328","req_no":0,"phone_no":"","email":"abayomi5991@gmail.com","user_email":"abayomi5991@gmail.com","first_name":"oluwadamilare","last_name":"oguntuga","team_name":"Test-Dev(Spend Management37)","company_name":"Canva","branch_name":null,"user_phone_no":"2347054383514","role":"SUB_ADMIN","is_registered":true,"created_at":"2024-07-15T15:38:58.706693+01:00","status":"ACTIVE"},{"id":"809f17f7-1a34-4b69-a69d-058f1576008f","req_no":0,"phone_no":"","email":"soloyede708@gmail.com","user_email":"soloyede708@gmail.com","first_name":"Oluwasegun","last_name":"Oloyede","team_name":"Test-Dev(Spend Management37)","company_name":"Canva","branch_name":null,"user_phone_no":"2348102751337","role":"MEMBER","is_registered":true,"created_at":"2024-07-15T15:38:58.689022+01:00","status":"ACTIVE"},{"id":"3a73dc6c-71d4-48af-a5d5-b5d8009d7cd2","req_no":0,"phone_no":"2348138096550","email":"adetutuisinks@gmail.com","user_email":"adetutuisinks@gmail.com","first_name":"Adeyyy","last_name":"Sandra","team_name":"Test-Dev(Spend Management37)","company_name":"Canva","branch_name":null,"user_phone_no":"2348138096550","role":"ADMIN","is_registered":true,"created_at":"2024-07-15T15:38:58.657100+01:00","status":"ACTIVE"}],"requisitions":0,"created_at":"2024-07-15T15:38:58.653122+01:00","allocated_amount":0,"spent_amount":0,"purse_balance":0.0,"total_active_allocation":0.0,"budget":null,"no_of_members":3,"approved_req":0,"pending_req":0},{"id":"71295d4c-c111-405c-82dd-2fce5950dc15","team_name":"Axiom Team","team_type":"PAYROLL","company_id":"166ef136-aad5-4870-9130-3ebc85472eff","company_name":"Axiom","branch":null,"members":[{"id":"cdc0110a-3c34-42b8-bc35-9c1353e17be6","req_no":0,"phone_no":"09088764748","email":"soloyede708@gmail.com","user_email":"soloyede708@gmail.com","first_name":"Oluwasegun","last_name":"Oloyede","team_name":"Axiom Team","company_name":"Axiom","branch_name":null,"user_phone_no":"2348102751337","role":"MEMBER","is_registered":true,"created_at":"2024-07-16T09:49:29.985842+01:00","status":"ACTIVE"},{"id":"6004793e-22ec-4eb4-ac5a-9a4217f589ef","req_no":0,"phone_no":"2348023769806","email":"madre@liberty.com","user_email":null,"first_name":null,"last_name":null,"team_name":"Axiom Team","company_name":"Axiom","branch_name":null,"user_phone_no":null,"role":"MEMBER","is_registered":false,"created_at":"2024-07-13T07:48:24.919355+01:00","status":"NOT_JOINED"},{"id":"91484f94-eefd-4319-820b-6935de045265","req_no":0,"phone_no":"2348023769806","email":"draemon@gmail.com","user_email":null,"first_name":null,"last_name":null,"team_name":"Axiom Team","company_name":"Axiom","branch_name":null,"user_phone_no":null,"role":"MEMBER","is_registered":false,"created_at":"2024-07-13T07:48:24.777049+01:00","status":"NOT_JOINED"},{"id":"ee74dfb6-886c-42fc-8fd0-e62b853e0338","req_no":0,"phone_no":"2348023769806","email":"oreade@gmail.com","user_email":null,"first_name":null,"last_name":null,"team_name":"Axiom Team","company_name":"Axiom","branch_name":null,"user_phone_no":null,"role":"MEMBER","is_registered":false,"created_at":"2024-07-05T14:17:42.720702+01:00","status":"NOT_JOINED"},{"id":"809013f5-ce63-48f8-943e-cc118e444a12","req_no":0,"phone_no":"2348023769806","email":"mariam@liberty.com","user_email":null,"first_name":null,"last_name":null,"team_name":"Axiom Team","company_name":"Axiom","branch_name":null,"user_phone_no":null,"role":"MEMBER","is_registered":false,"created_at":"2024-07-05T14:14:25.910849+01:00","status":"NOT_JOINED"},{"id":"bcca9988-18a7-46e7-a4ec-0a886c3ce30f","req_no":0,"phone_no":"2348023769806","email":"docrozay@gmail.com","user_email":null,"first_name":null,"last_name":null,"team_name":"Axiom Team","company_name":"Axiom","branch_name":null,"user_phone_no":null,"role":"MEMBER","is_registered":false,"created_at":"2024-07-05T14:14:25.879032+01:00","status":"NOT_JOINED"},{"id":"4de4c481-a6fd-4a9d-8820-4749b1bbc2b8","req_no":0,"phone_no":"2348138096550","email":"adetutuisinks@gmail.com","user_email":"adetutuisinks@gmail.com","first_name":"Adeyyy","last_name":"Sandra","team_name":"Axiom Team","company_name":"Axiom","branch_name":null,"user_phone_no":"2348138096550","role":"ADMIN","is_registered":true,"created_at":"2024-07-05T14:14:25.795637+01:00","status":"ACTIVE"}],"requisitions":0,"created_at":"2024-07-05T14:14:25.792596+01:00","allocated_amount":0,"spent_amount":0,"purse_balance":0.0,"total_active_allocation":0.0,"budget":null,"no_of_members":7,"approved_req":0,"pending_req":0},{"id":"b6379d02-e832-40b9-a265-cc0e512b211d","team_name":"Team White","team_type":"SALES","company_id":"666bd28e-26a3-48ab-9d14-fb761b186874","company_name":"Test Abc","branch":"TEST A","members":[{"id":"d23a4484-55f9-4e74-9b71-ec69f2465ebe","req_no":0,"phone_no":null,"email":"darasimiayomide097@gmail.com","user_email":"darasimiayomide097@gmail.com","first_name":"Ariyo","last_name":"ayomide","team_name":"Team White","company_name":"Test Abc","branch_name":"TEST A","user_phone_no":"2347010420268","role":"MEMBER","is_registered":true,"created_at":"2024-06-29T17:45:48.590351+01:00","status":"ACTIVE"},{"id":"e3a0db50-21a5-4932-baa1-d2acb636a8a8","req_no":0,"phone_no":null,"email":"richiereckon@gmail.com","user_email":"richiereckon@gmail.com","first_name":"Richard","last_name":"fasan","team_name":"Team White","company_name":"Test Abc","branch_name":"TEST A","user_phone_no":"2347015001807","role":"MEMBER","is_registered":true,"created_at":"2024-06-29T17:45:48.575359+01:00","status":"ACTIVE"},{"id":"d1fd210e-a913-477a-b8c2-60712b179ee0","req_no":0,"phone_no":"2348138096550","email":"adetutuisinks@gmail.com","user_email":"adetutuisinks@gmail.com","first_name":"Adeyyy","last_name":"Sandra","team_name":"Team White","company_name":"Test Abc","branch_name":"TEST A","user_phone_no":"2348138096550","role":"ADMIN","is_registered":true,"created_at":"2024-06-29T17:45:48.547768+01:00","status":"ACTIVE"}],"requisitions":0,"created_at":"2024-06-29T17:45:48.545313+01:00","allocated_amount":0,"spent_amount":0,"purse_balance":0.0,"total_active_allocation":0.0,"budget":null,"no_of_members":3,"approved_req":0,"pending_req":0},{"id":"467f994d-bcc1-4aab-ab5f-6934cbbf0dce","team_name":"Go Team","team_type":"SPEND_MGMT","company_id":"a42d0633-c6df-419d-a133-3331c37c3af4","company_name":"Ancient","branch":null,"members":[{"id":"2ddd3145-c5fa-4ede-858b-5bc29ce98633","req_no":0,"phone_no":null,"email":"josephineayodele2@gmail.com","user_email":"josephineayodele2@gmail.com","first_name":"JOSEPHINE","last_name":"AKINFOYEWA","team_name":"Go Team","company_name":"Ancient","branch_name":null,"user_phone_no":"2348053752535","role":"REVIEWER","is_registered":true,"created_at":"2024-06-29T08:56:54.469651+01:00","status":"ACTIVE"},{"id":"a580fe42-f1a4-41cb-973b-a3b41331b25a","req_no":0,"phone_no":null,"email":"adeyinka232803@gmail.com","user_email":"adeyinka232803@gmail.com","first_name":"Adeyinka","last_name":"Adeniji","team_name":"Go Team","company_name":"Ancient","branch_name":null,"user_phone_no":"2348137168981","role":"MEMBER","is_registered":true,"created_at":"2024-06-29T08:17:59.638576+01:00","status":"ACTIVE"},{"id":"136934e6-b586-40f3-b751-6036f9c1b2a3","req_no":0,"phone_no":"2348138096550","email":"adetutuisinks@gmail.com","user_email":"adetutuisinks@gmail.com","first_name":"Adeyyy","last_name":"Sandra","team_name":"Go Team","company_name":"Ancient","branch_name":null,"user_phone_no":"2348138096550","role":"ADMIN","is_registered":true,"created_at":"2024-06-29T08:17:59.583566+01:00","status":"ACTIVE"}],"requisitions":0,"created_at":"2024-06-29T08:17:59.576253+01:00","allocated_amount":0,"spent_amount":0,"purse_balance":0.0,"total_active_allocation":0.0,"budget":null,"no_of_members":3,"approved_req":0,"pending_req":0},{"id":"be1560cd-e754-4743-a329-4d722cd274d8","team_name":"Solutions","team_type":"SPEND_MGMT","company_id":"166ef136-aad5-4870-9130-3ebc85472eff","company_name":"Axiom","branch":null,"members":[{"id":"3d010299-2290-4e9c-95e3-497ff4f50e13","req_no":0,"phone_no":null,"email":"ada@mailsac.com","user_email":"ada@mailsac.com","first_name":"Mitsuki","last_name":"Lee","team_name":"Solutions","company_name":"Axiom","branch_name":null,"user_phone_no":"2348157358580","role":"MEMBER","is_registered":true,"created_at":"2024-06-29T07:05:41.915018+01:00","status":"ACTIVE"},{"id":"d92ca6ac-d049-4225-8a75-bf4ca98f9806","req_no":0,"phone_no":"2348138096550","email":"adetutuisinks@gmail.com","user_email":"adetutuisinks@gmail.com","first_name":"Adeyyy","last_name":"Sandra","team_name":"Solutions","company_name":"Axiom","branch_name":null,"user_phone_no":"2348138096550","role":"ADMIN","is_registered":true,"created_at":"2024-06-29T07:05:41.886073+01:00","status":"ACTIVE"}],"requisitions":0,"created_at":"2024-06-29T07:05:41.882069+01:00","allocated_amount":0,"spent_amount":0,"purse_balance":0.0,"total_active_allocation":0,"budget":{"id":86,"budget_name":"trees","budget_amount":20000.0,"team_id":"be1560cd-e754-4743-a329-4d722cd274d8","team_name":"Solutions","is_active":true,"start_date":"2024-07-01","end_date":"2024-07-30"},"no_of_members":2,"approved_req":0,"pending_req":0},{"id":"1940e95f-768b-4b05-a312-84ab621e0b7a","team_name":"#$@","team_type":"SPEND_MGMT","company_id":"166ef136-aad5-4870-9130-3ebc85472eff","company_name":"Axiom","branch":null,"members":[{"id":"1785cec9-eb07-4285-bb5d-cb2c9c2b405f","req_no":0,"phone_no":null,"email":"idorenyinankoh@gmail.com","user_email":"idorenyinankoh@gmail.com","first_name":"Idorenyin","last_name":"Ankoh","team_name":"#$@","company_name":"Axiom","branch_name":null,"user_phone_no":"2347065299551","role":"ADMIN","is_registered":true,"created_at":"2024-06-27T12:25:40.964243+01:00","status":"ACTIVE"},{"id":"5ed19094-33bf-4399-ae3d-bf0c0ae2b606","req_no":0,"phone_no":"2348138096550","email":"adetutuisinks@gmail.com","user_email":"adetutuisinks@gmail.com","first_name":"Adeyyy","last_name":"Sandra","team_name":"#$@","company_name":"Axiom","branch_name":null,"user_phone_no":"2348138096550","role":"ADMIN","is_registered":true,"created_at":"2024-06-27T12:25:40.925442+01:00","status":"ACTIVE"}],"requisitions":0,"created_at":"2024-06-27T12:25:40.922158+01:00","allocated_amount":0,"spent_amount":0,"purse_balance":0.0,"total_active_allocation":0.0,"budget":null,"no_of_members":2,"approved_req":0,"pending_req":0},{"id":"478aae31-282e-4e6e-ba7e-17057cdd15c8","team_name":"Project","team_type":"SPEND_MGMT","company_id":"166ef136-aad5-4870-9130-3ebc85472eff","company_name":"Axiom","branch":null,"members":[{"id":"fc34262f-a79a-4958-8378-71c2c4159fdd","req_no":0,"phone_no":null,"email":"ogunmola.akinwumi@yahoo.com","user_email":"ogunmola.akinwumi@yahoo.com","first_name":"Boruto","last_name":"Uzumaki","team_name":"Project","company_name":"Axiom","branch_name":null,"user_phone_no":"2347031814578","role":"MEMBER","is_registered":true,"created_at":"2024-06-27T12:07:47.420656+01:00","status":"ACTIVE"},{"id":"ace96ac6-b7ba-48ec-b986-6e8ac7d16bb8","req_no":0,"phone_no":null,"email":"ankoh@mailsac.com","user_email":"ankoh@mailsac.com","first_name":"boruto","last_name":"naruto","team_name":"Project","company_name":"Axiom","branch_name":null,"user_phone_no":"2349045090999","role":"ADMIN","is_registered":true,"created_at":"2024-06-27T12:07:47.411065+01:00","status":"ACTIVE"},{"id":"d4d84226-e0f7-464e-98c7-5b680a29a856","req_no":0,"phone_no":"2348138096550","email":"adetutuisinks@gmail.com","user_email":"adetutuisinks@gmail.com","first_name":"Adeyyy","last_name":"Sandra","team_name":"Project","company_name":"Axiom","branch_name":null,"user_phone_no":"2348138096550","role":"ADMIN","is_registered":true,"created_at":"2024-06-27T12:07:47.377878+01:00","status":"ACTIVE"}],"requisitions":0,"created_at":"2024-06-27T12:07:47.374889+01:00","allocated_amount":20000.0,"spent_amount":0,"purse_balance":20000.0,"total_active_allocation":0,"budget":{"id":82,"budget_name":"Allowance","budget_amount":30000.0,"team_id":"478aae31-282e-4e6e-ba7e-17057cdd15c8","team_name":"Project","is_active":true,"start_date":"2024-07-01","end_date":"2024-07-30"},"no_of_members":3,"approved_req":0,"pending_req":0}]}