{"count":161,"next":"https://management.libertypayng.com/req/categories/?page=2","previous":null,"results":[{"title":"ACCESSORIES","budgeted":false},{"title":"ACCOUNTING FEES","budgeted":false},{"title":"AIR TRIP","budgeted":false},{"title":"ANNIVERSARIES","budgeted":false},{"title":"APPLIANCES","budgeted":false},{"title":"BABYSITTERS","budgeted":false},{"title":"BANK FEES","budgeted":false},{"title":"BEAUTY PRODUCTS","budgeted":false},{"title":"BIRTHDAYS","budgeted":false},{"title":"BOOKS AND MAGAZINES","budgeted":false}]}